<svg xmlns="http://www.w3.org/2000/svg" viewBox="0 0 48 48" width="48" height="48">
    <defs>
        <linearGradient id="a" x1="50%" x2="50%" y1="0%" y2="100%">
            <stop stop-color="#C7CECB" offset="0%"/>
            <stop stop-color="#9CA5A0" offset="100%"/>
        </linearGradient>
    </defs>
    <path fill="url(#a)" d="M11.02 39.21A19.96 19.96 0 0 1 4 24c0-5.52 2.24-10.52 5.86-14.14a20 20 0 1 1 1.16 29.35zM9.38 25.23c2.22-1.95 3.78-4.56 7.95-4.56 6.67 0 6.67 6.66 13.34 6.66 4.17 0 5.73-2.6 7.95-4.56a14.67 14.67 0 0 0-29.24 2.46z"/>
</svg>